## Interface: 110002
## Title: CantTouchThis
## Notes: Remember and show if mobs are immune to crowd control.
## Notes-deDE: Merke und zeige, wenn Gegner gegen Kontrolleffekte immun sind.
## Version: @project-version@
## SavedVariables: CantTouchThisDB

Libs\libs.xml
CantTouchThis.lua

#@do-not-package@
## Version: 0-dev0
#@end-do-not-package@